%YAML 1.1
%TAG !u! tag:unity3d.com,2011:
--- !u!54 &1792776968
Rigidbody:
  m_ObjectHideFlags: 0
  m_CorrespondingSourceObject: {fileID: 0}
  m_PrefabInstance: {fileID: 0}
  m_PrefabAsset: {fileID: 0}
  m_GameObject: {fileID: 9152630586278522803}
  serializedVersion: 2
  m_Mass: 1
  m_Drag: 0
  m_AngularDrag: 0.05
  m_UseGravity: 1
  m_IsKinematic: 1
  m_Interpolate: 0
  m_Constraints: 0
  m_CollisionDetection: 0
--- !u!64 &4877815710652607708
MeshCollider:
  m_ObjectHideFlags: 0
  m_CorrespondingSourceObject: {fileID: 0}
  m_PrefabInstance: {fileID: 0}
  m_PrefabAsset: {fileID: 0}
  m_GameObject: {fileID: 9152630586278522803}
  m_Material: {fileID: 0}
  m_IsTrigger: 0
  m_Enabled: 1
  serializedVersion: 3
  m_Convex: 0
  m_CookingOptions: 14
  m_Mesh: {fileID: 0}
--- !u!114 &1792776967
MonoBehaviour:
  m_ObjectHideFlags: 0
  m_CorrespondingSourceObject: {fileID: 0}
  m_PrefabInstance: {fileID: 0}
  m_PrefabAsset: {fileID: 0}
  m_GameObject: {fileID: 9152630586278522803}
  m_Enabled: 1
  m_EditorHideFlags: 0
  m_Script: {fileID: 11500000, guid: 02d61468f8b77ae4b92c344bc9a600fb, type: 3}
  m_Name: 
  m_EditorClassIdentifier: 
  m_allowOffhandGrab: 1
  m_snapPosition: 0
  m_snapOrientation: 0
  m_snapOffset: {fileID: 0}
  m_grabPoints: []
--- !u!114 &4336577369899812963
MonoBehaviour:
  m_ObjectHideFlags: 0
  m_CorrespondingSourceObject: {fileID: 0}
  m_PrefabInstance: {fileID: 0}
  m_PrefabAsset: {fileID: 0}
  m_GameObject: {fileID: 9152630586278522803}
  m_Enabled: 1
  m_EditorHideFlags: 0
  m_Script: {fileID: 11500000, guid: a392495e02c0887459047464873bbbb4, type: 3}
  m_Name: 
  m_EditorClassIdentifier: 
  chair: {fileID: 0}
--- !u!114 &3769848635463965153
MonoBehaviour:
  m_ObjectHideFlags: 0
  m_CorrespondingSourceObject: {fileID: 0}
  m_PrefabInstance: {fileID: 0}
  m_PrefabAsset: {fileID: 0}
  m_GameObject: {fileID: 9152630586278522803}
  m_Enabled: 1
  m_EditorHideFlags: 0
  m_Script: {fileID: 11500000, guid: 94aff18cc83219c4bbc4e61586c481ad, type: 3}
  m_Name: 
  m_EditorClassIdentifier: 
--- !u!1001 &9152630586278422807
PrefabInstance:
  m_ObjectHideFlags: 0
  serializedVersion: 2
  m_Modification:
    m_TransformParent: {fileID: 0}
    m_Modifications:
    - target: {fileID: 100004, guid: 01dfb375646cba84e9b92e2cedf7d149, type: 3}
      propertyPath: m_Name
      value: kitchen_chair_1 Variant
      objectReference: {fileID: 0}
    - target: {fileID: 400004, guid: 01dfb375646cba84e9b92e2cedf7d149, type: 3}
      propertyPath: m_LocalPosition.x
      value: -331.47
      objectReference: {fileID: 0}
    - target: {fileID: 400004, guid: 01dfb375646cba84e9b92e2cedf7d149, type: 3}
      propertyPath: m_LocalPosition.y
      value: 76.37
      objectReference: {fileID: 0}
    - target: {fileID: 400004, guid: 01dfb375646cba84e9b92e2cedf7d149, type: 3}
      propertyPath: m_LocalPosition.z
      value: -45.65
      objectReference: {fileID: 0}
    - target: {fileID: 400004, guid: 01dfb375646cba84e9b92e2cedf7d149, type: 3}
      propertyPath: m_LocalRotation.x
      value: -0.7071068
      objectReference: {fileID: 0}
    - target: {fileID: 400004, guid: 01dfb375646cba84e9b92e2cedf7d149, type: 3}
      propertyPath: m_LocalRotation.y
      value: 0
      objectReference: {fileID: 0}
    - target: {fileID: 400004, guid: 01dfb375646cba84e9b92e2cedf7d149, type: 3}
      propertyPath: m_LocalRotation.z
      value: 0
      objectReference: {fileID: 0}
    - target: {fileID: 400004, guid: 01dfb375646cba84e9b92e2cedf7d149, type: 3}
      propertyPath: m_LocalRotation.w
      value: 0.7071067
      objectReference: {fileID: 0}
    - target: {fileID: 400004, guid: 01dfb375646cba84e9b92e2cedf7d149, type: 3}
      propertyPath: m_RootOrder
      value: 0
      objectReference: {fileID: 0}
    - target: {fileID: 400004, guid: 01dfb375646cba84e9b92e2cedf7d149, type: 3}
      propertyPath: m_LocalEulerAnglesHint.x
      value: 0
      objectReference: {fileID: 0}
    - target: {fileID: 400004, guid: 01dfb375646cba84e9b92e2cedf7d149, type: 3}
      propertyPath: m_LocalEulerAnglesHint.y
      value: 0
      objectReference: {fileID: 0}
    - target: {fileID: 400004, guid: 01dfb375646cba84e9b92e2cedf7d149, type: 3}
      propertyPath: m_LocalEulerAnglesHint.z
      value: 0
      objectReference: {fileID: 0}
    - target: {fileID: 2300000, guid: 01dfb375646cba84e9b92e2cedf7d149, type: 3}
      propertyPath: m_Materials.Array.data[0]
      value: 
      objectReference: {fileID: 2100000, guid: 60dc69e454d5c334ab87825117ea1cb5, type: 2}
    - target: {fileID: 2300002, guid: 01dfb375646cba84e9b92e2cedf7d149, type: 3}
      propertyPath: m_Materials.Array.data[0]
      value: 
      objectReference: {fileID: 2100000, guid: 60dc69e454d5c334ab87825117ea1cb5, type: 2}
    m_RemovedComponents: []
  m_SourcePrefab: {fileID: 100100000, guid: 01dfb375646cba84e9b92e2cedf7d149, type: 3}
--- !u!1 &9152630586278522803 stripped
GameObject:
  m_CorrespondingSourceObject: {fileID: 100004, guid: 01dfb375646cba84e9b92e2cedf7d149,
    type: 3}
  m_PrefabInstance: {fileID: 9152630586278422807}
  m_PrefabAsset: {fileID: 0}
