%YAML 1.1
%TAG !u! tag:unity3d.com,2011:
--- !u!114 &2104365280758862381
MonoBehaviour:
  m_ObjectHideFlags: 0
  m_CorrespondingSourceObject: {fileID: 0}
  m_PrefabInstance: {fileID: 0}
  m_PrefabAsset: {fileID: 0}
  m_GameObject: {fileID: 7475065932099022276}
  m_Enabled: 1
  m_EditorHideFlags: 0
  m_Script: {fileID: 11500000, guid: 01101e97fb1793f4c919d41bcf219a4e, type: 3}
  m_Name: 
  m_EditorClassIdentifier: 
  table: {fileID: 7475065932099022276}
--- !u!1001 &5378788762692016809
PrefabInstance:
  m_ObjectHideFlags: 0
  serializedVersion: 2
  m_Modification:
    m_TransformParent: {fileID: 0}
    m_Modifications:
    - target: {fileID: 3249786102063314797, guid: 5fa389a2b83b5da4c8a589845f5ab5e5,
        type: 3}
      propertyPath: m_Name
      value: kitchen_chair_1 (1) Variant Variant
      objectReference: {fileID: 0}
    - target: {fileID: 3249786102063278925, guid: 5fa389a2b83b5da4c8a589845f5ab5e5,
        type: 3}
      propertyPath: m_LocalPosition.x
      value: -327.164
      objectReference: {fileID: 0}
    - target: {fileID: 3249786102063278925, guid: 5fa389a2b83b5da4c8a589845f5ab5e5,
        type: 3}
      propertyPath: m_LocalPosition.y
      value: 76.46691
      objectReference: {fileID: 0}
    - target: {fileID: 3249786102063278925, guid: 5fa389a2b83b5da4c8a589845f5ab5e5,
        type: 3}
      propertyPath: m_LocalPosition.z
      value: 84.535
      objectReference: {fileID: 0}
    - target: {fileID: 3249786102063278925, guid: 5fa389a2b83b5da4c8a589845f5ab5e5,
        type: 3}
      propertyPath: m_LocalRotation.x
      value: -0.5
      objectReference: {fileID: 0}
    - target: {fileID: 3249786102063278925, guid: 5fa389a2b83b5da4c8a589845f5ab5e5,
        type: 3}
      propertyPath: m_LocalRotation.y
      value: 0.5
      objectReference: {fileID: 0}
    - target: {fileID: 3249786102063278925, guid: 5fa389a2b83b5da4c8a589845f5ab5e5,
        type: 3}
      propertyPath: m_LocalRotation.z
      value: 0.5
      objectReference: {fileID: 0}
    - target: {fileID: 3249786102063278925, guid: 5fa389a2b83b5da4c8a589845f5ab5e5,
        type: 3}
      propertyPath: m_LocalRotation.w
      value: 0.5
      objectReference: {fileID: 0}
    - target: {fileID: 3249786102063278925, guid: 5fa389a2b83b5da4c8a589845f5ab5e5,
        type: 3}
      propertyPath: m_RootOrder
      value: 0
      objectReference: {fileID: 0}
    - target: {fileID: 3249786102063278925, guid: 5fa389a2b83b5da4c8a589845f5ab5e5,
        type: 3}
      propertyPath: m_LocalEulerAnglesHint.x
      value: -90.00001
      objectReference: {fileID: 0}
    - target: {fileID: 3249786102063278925, guid: 5fa389a2b83b5da4c8a589845f5ab5e5,
        type: 3}
      propertyPath: m_LocalEulerAnglesHint.y
      value: 0
      objectReference: {fileID: 0}
    - target: {fileID: 3249786102063278925, guid: 5fa389a2b83b5da4c8a589845f5ab5e5,
        type: 3}
      propertyPath: m_LocalEulerAnglesHint.z
      value: 90
      objectReference: {fileID: 0}
    m_RemovedComponents:
    - {fileID: 764346831948177022, guid: 5fa389a2b83b5da4c8a589845f5ab5e5, type: 3}
  m_SourcePrefab: {fileID: 100100000, guid: 5fa389a2b83b5da4c8a589845f5ab5e5, type: 3}
--- !u!1 &7475065932099022276 stripped
GameObject:
  m_CorrespondingSourceObject: {fileID: 3249786102063314797, guid: 5fa389a2b83b5da4c8a589845f5ab5e5,
    type: 3}
  m_PrefabInstance: {fileID: 5378788762692016809}
  m_PrefabAsset: {fileID: 0}
