%YAML 1.1
%TAG !u! tag:unity3d.com,2011:
--- !u!114 &1910388264
MonoBehaviour:
  m_ObjectHideFlags: 0
  m_CorrespondingSourceObject: {fileID: 0}
  m_PrefabInstance: {fileID: 0}
  m_PrefabAsset: {fileID: 0}
  m_GameObject: {fileID: 2936250613690955668}
  m_Enabled: 1
  m_EditorHideFlags: 0
  m_Script: {fileID: 11500000, guid: fe2788154aa35f54a9a4d3a923a48628, type: 3}
  m_Name: 
  m_EditorClassIdentifier: 
  table1: {fileID: 0}
  table2: {fileID: 0}
  bean: {fileID: 0}
  chair: {fileID: 0}
  fridge: {fileID: 0}
  bed1: {fileID: 0}
  bed2: {fileID: 0}
  poof: {fileID: 0}
  sofa: {fileID: 0}
--- !u!1001 &6588827048986967105
PrefabInstance:
  m_ObjectHideFlags: 0
  serializedVersion: 2
  m_Modification:
    m_TransformParent: {fileID: 0}
    m_Modifications:
    - target: {fileID: 8345063641267571669, guid: a0f6dcbd5cfb7714a8114f6ac09b2f90,
        type: 3}
      propertyPath: m_Name
      value: RFAIPP_Fridge Variant Variant
      objectReference: {fileID: 0}
    - target: {fileID: 8348151164266831453, guid: a0f6dcbd5cfb7714a8114f6ac09b2f90,
        type: 3}
      propertyPath: m_LocalPosition.x
      value: -317.468
      objectReference: {fileID: 0}
    - target: {fileID: 8348151164266831453, guid: a0f6dcbd5cfb7714a8114f6ac09b2f90,
        type: 3}
      propertyPath: m_LocalPosition.y
      value: 76.46691
      objectReference: {fileID: 0}
    - target: {fileID: 8348151164266831453, guid: a0f6dcbd5cfb7714a8114f6ac09b2f90,
        type: 3}
      propertyPath: m_LocalPosition.z
      value: 86.051
      objectReference: {fileID: 0}
    - target: {fileID: 8348151164266831453, guid: a0f6dcbd5cfb7714a8114f6ac09b2f90,
        type: 3}
      propertyPath: m_LocalRotation.x
      value: 0
      objectReference: {fileID: 0}
    - target: {fileID: 8348151164266831453, guid: a0f6dcbd5cfb7714a8114f6ac09b2f90,
        type: 3}
      propertyPath: m_LocalRotation.y
      value: 1
      objectReference: {fileID: 0}
    - target: {fileID: 8348151164266831453, guid: a0f6dcbd5cfb7714a8114f6ac09b2f90,
        type: 3}
      propertyPath: m_LocalRotation.z
      value: 0
      objectReference: {fileID: 0}
    - target: {fileID: 8348151164266831453, guid: a0f6dcbd5cfb7714a8114f6ac09b2f90,
        type: 3}
      propertyPath: m_LocalRotation.w
      value: 0
      objectReference: {fileID: 0}
    - target: {fileID: 8348151164266831453, guid: a0f6dcbd5cfb7714a8114f6ac09b2f90,
        type: 3}
      propertyPath: m_RootOrder
      value: 0
      objectReference: {fileID: 0}
    - target: {fileID: 8348151164266831453, guid: a0f6dcbd5cfb7714a8114f6ac09b2f90,
        type: 3}
      propertyPath: m_LocalEulerAnglesHint.x
      value: 0
      objectReference: {fileID: 0}
    - target: {fileID: 8348151164266831453, guid: a0f6dcbd5cfb7714a8114f6ac09b2f90,
        type: 3}
      propertyPath: m_LocalEulerAnglesHint.y
      value: 180
      objectReference: {fileID: 0}
    - target: {fileID: 8348151164266831453, guid: a0f6dcbd5cfb7714a8114f6ac09b2f90,
        type: 3}
      propertyPath: m_LocalEulerAnglesHint.z
      value: 0
      objectReference: {fileID: 0}
    - target: {fileID: 8348151164266831453, guid: a0f6dcbd5cfb7714a8114f6ac09b2f90,
        type: 3}
      propertyPath: m_LocalScale.z
      value: 1.2
      objectReference: {fileID: 0}
    - target: {fileID: 8348151164266831453, guid: a0f6dcbd5cfb7714a8114f6ac09b2f90,
        type: 3}
      propertyPath: m_LocalScale.x
      value: 1.5
      objectReference: {fileID: 0}
    m_RemovedComponents:
    - {fileID: 6802506946430665875, guid: a0f6dcbd5cfb7714a8114f6ac09b2f90, type: 3}
  m_SourcePrefab: {fileID: 100100000, guid: a0f6dcbd5cfb7714a8114f6ac09b2f90, type: 3}
--- !u!1 &2936250613690955668 stripped
GameObject:
  m_CorrespondingSourceObject: {fileID: 8345063641267571669, guid: a0f6dcbd5cfb7714a8114f6ac09b2f90,
    type: 3}
  m_PrefabInstance: {fileID: 6588827048986967105}
  m_PrefabAsset: {fileID: 0}
