%YAML 1.1
%TAG !u! tag:unity3d.com,2011:
--- !u!54 &1662042919
Rigidbody:
  m_ObjectHideFlags: 0
  m_CorrespondingSourceObject: {fileID: 0}
  m_PrefabInstance: {fileID: 0}
  m_PrefabAsset: {fileID: 0}
  m_GameObject: {fileID: 3438453663602556310}
  serializedVersion: 2
  m_Mass: 1
  m_Drag: 0
  m_AngularDrag: 0.05
  m_UseGravity: 1
  m_IsKinematic: 0
  m_Interpolate: 0
  m_Constraints: 0
  m_CollisionDetection: 0
--- !u!114 &-6323261671805514661
MonoBehaviour:
  m_ObjectHideFlags: 0
  m_CorrespondingSourceObject: {fileID: 0}
  m_PrefabInstance: {fileID: 0}
  m_PrefabAsset: {fileID: 0}
  m_GameObject: {fileID: 3438453663602556310}
  m_Enabled: 1
  m_EditorHideFlags: 0
  m_Script: {fileID: 11500000, guid: 94aff18cc83219c4bbc4e61586c481ad, type: 3}
  m_Name: 
  m_EditorClassIdentifier: 
--- !u!114 &1662042920
MonoBehaviour:
  m_ObjectHideFlags: 0
  m_CorrespondingSourceObject: {fileID: 0}
  m_PrefabInstance: {fileID: 0}
  m_PrefabAsset: {fileID: 0}
  m_GameObject: {fileID: 3438453663602556310}
  m_Enabled: 1
  m_EditorHideFlags: 0
  m_Script: {fileID: 11500000, guid: 02d61468f8b77ae4b92c344bc9a600fb, type: 3}
  m_Name: 
  m_EditorClassIdentifier: 
  m_allowOffhandGrab: 1
  m_snapPosition: 0
  m_snapOrientation: 0
  m_snapOffset: {fileID: 0}
  m_grabPoints: []
--- !u!1001 &3436952543992793054
PrefabInstance:
  m_ObjectHideFlags: 0
  serializedVersion: 2
  m_Modification:
    m_TransformParent: {fileID: 0}
    m_Modifications:
    - target: {fileID: 1501119746112072, guid: e08a740808a271b4fb40a6609ee512fc, type: 3}
      propertyPath: m_Name
      value: RFAIPP_Pouf Variant
      objectReference: {fileID: 0}
    - target: {fileID: 4473694965359360, guid: e08a740808a271b4fb40a6609ee512fc, type: 3}
      propertyPath: m_LocalPosition.x
      value: -327.2413
      objectReference: {fileID: 0}
    - target: {fileID: 4473694965359360, guid: e08a740808a271b4fb40a6609ee512fc, type: 3}
      propertyPath: m_LocalPosition.y
      value: 76.46691
      objectReference: {fileID: 0}
    - target: {fileID: 4473694965359360, guid: e08a740808a271b4fb40a6609ee512fc, type: 3}
      propertyPath: m_LocalPosition.z
      value: -42.31725
      objectReference: {fileID: 0}
    - target: {fileID: 4473694965359360, guid: e08a740808a271b4fb40a6609ee512fc, type: 3}
      propertyPath: m_LocalRotation.x
      value: 0
      objectReference: {fileID: 0}
    - target: {fileID: 4473694965359360, guid: e08a740808a271b4fb40a6609ee512fc, type: 3}
      propertyPath: m_LocalRotation.y
      value: 0
      objectReference: {fileID: 0}
    - target: {fileID: 4473694965359360, guid: e08a740808a271b4fb40a6609ee512fc, type: 3}
      propertyPath: m_LocalRotation.z
      value: 0
      objectReference: {fileID: 0}
    - target: {fileID: 4473694965359360, guid: e08a740808a271b4fb40a6609ee512fc, type: 3}
      propertyPath: m_LocalRotation.w
      value: 1
      objectReference: {fileID: 0}
    - target: {fileID: 4473694965359360, guid: e08a740808a271b4fb40a6609ee512fc, type: 3}
      propertyPath: m_RootOrder
      value: 0
      objectReference: {fileID: 0}
    - target: {fileID: 4473694965359360, guid: e08a740808a271b4fb40a6609ee512fc, type: 3}
      propertyPath: m_LocalEulerAnglesHint.x
      value: 0
      objectReference: {fileID: 0}
    - target: {fileID: 4473694965359360, guid: e08a740808a271b4fb40a6609ee512fc, type: 3}
      propertyPath: m_LocalEulerAnglesHint.y
      value: 0
      objectReference: {fileID: 0}
    - target: {fileID: 4473694965359360, guid: e08a740808a271b4fb40a6609ee512fc, type: 3}
      propertyPath: m_LocalEulerAnglesHint.z
      value: 0
      objectReference: {fileID: 0}
    - target: {fileID: 4473694965359360, guid: e08a740808a271b4fb40a6609ee512fc, type: 3}
      propertyPath: m_LocalScale.x
      value: 1.2
      objectReference: {fileID: 0}
    - target: {fileID: 4473694965359360, guid: e08a740808a271b4fb40a6609ee512fc, type: 3}
      propertyPath: m_LocalScale.y
      value: 1.2
      objectReference: {fileID: 0}
    - target: {fileID: 4473694965359360, guid: e08a740808a271b4fb40a6609ee512fc, type: 3}
      propertyPath: m_LocalScale.z
      value: 1.2
      objectReference: {fileID: 0}
    - target: {fileID: 64000713732951292, guid: e08a740808a271b4fb40a6609ee512fc,
        type: 3}
      propertyPath: m_Convex
      value: 1
      objectReference: {fileID: 0}
    m_RemovedComponents: []
  m_SourcePrefab: {fileID: 100100000, guid: e08a740808a271b4fb40a6609ee512fc, type: 3}
--- !u!1 &3438453663602556310 stripped
GameObject:
  m_CorrespondingSourceObject: {fileID: 1501119746112072, guid: e08a740808a271b4fb40a6609ee512fc,
    type: 3}
  m_PrefabInstance: {fileID: 3436952543992793054}
  m_PrefabAsset: {fileID: 0}
