%YAML 1.1
%TAG !u! tag:unity3d.com,2011:
--- !u!54 &1603338163
Rigidbody:
  m_ObjectHideFlags: 0
  m_CorrespondingSourceObject: {fileID: 0}
  m_PrefabInstance: {fileID: 0}
  m_PrefabAsset: {fileID: 0}
  m_GameObject: {fileID: 8345063641267571669}
  serializedVersion: 2
  m_Mass: 1
  m_Drag: 0
  m_AngularDrag: 0.05
  m_UseGravity: 1
  m_IsKinematic: 0
  m_Interpolate: 0
  m_Constraints: 0
  m_CollisionDetection: 0
--- !u!114 &1603338164
MonoBehaviour:
  m_ObjectHideFlags: 0
  m_CorrespondingSourceObject: {fileID: 0}
  m_PrefabInstance: {fileID: 0}
  m_PrefabAsset: {fileID: 0}
  m_GameObject: {fileID: 8345063641267571669}
  m_Enabled: 1
  m_EditorHideFlags: 0
  m_Script: {fileID: 11500000, guid: 02d61468f8b77ae4b92c344bc9a600fb, type: 3}
  m_Name: 
  m_EditorClassIdentifier: 
  m_allowOffhandGrab: 1
  m_snapPosition: 0
  m_snapOrientation: 0
  m_snapOffset: {fileID: 0}
  m_grabPoints: []
--- !u!114 &6955602565031498670
MonoBehaviour:
  m_ObjectHideFlags: 0
  m_CorrespondingSourceObject: {fileID: 0}
  m_PrefabInstance: {fileID: 0}
  m_PrefabAsset: {fileID: 0}
  m_GameObject: {fileID: 8345063641267571669}
  m_Enabled: 1
  m_EditorHideFlags: 0
  m_Script: {fileID: 11500000, guid: 94aff18cc83219c4bbc4e61586c481ad, type: 3}
  m_Name: 
  m_EditorClassIdentifier: 
--- !u!1001 &8343578490667929605
PrefabInstance:
  m_ObjectHideFlags: 0
  serializedVersion: 2
  m_Modification:
    m_TransformParent: {fileID: 0}
    m_Modifications:
    - target: {fileID: 1626472809896912, guid: e73ea3d6c1c7a174d90610d74b85220d, type: 3}
      propertyPath: m_Name
      value: RFAIPP_Fridge Variant
      objectReference: {fileID: 0}
    - target: {fileID: 64564244090487948, guid: e73ea3d6c1c7a174d90610d74b85220d,
        type: 3}
      propertyPath: m_Convex
      value: 1
      objectReference: {fileID: 0}
    - target: {fileID: 4731399302631000, guid: e73ea3d6c1c7a174d90610d74b85220d, type: 3}
      propertyPath: m_LocalPosition.x
      value: -333.8456
      objectReference: {fileID: 0}
    - target: {fileID: 4731399302631000, guid: e73ea3d6c1c7a174d90610d74b85220d, type: 3}
      propertyPath: m_LocalPosition.y
      value: 76.46691
      objectReference: {fileID: 0}
    - target: {fileID: 4731399302631000, guid: e73ea3d6c1c7a174d90610d74b85220d, type: 3}
      propertyPath: m_LocalPosition.z
      value: -45.061
      objectReference: {fileID: 0}
    - target: {fileID: 4731399302631000, guid: e73ea3d6c1c7a174d90610d74b85220d, type: 3}
      propertyPath: m_LocalRotation.x
      value: 0
      objectReference: {fileID: 0}
    - target: {fileID: 4731399302631000, guid: e73ea3d6c1c7a174d90610d74b85220d, type: 3}
      propertyPath: m_LocalRotation.y
      value: 0
      objectReference: {fileID: 0}
    - target: {fileID: 4731399302631000, guid: e73ea3d6c1c7a174d90610d74b85220d, type: 3}
      propertyPath: m_LocalRotation.z
      value: 0
      objectReference: {fileID: 0}
    - target: {fileID: 4731399302631000, guid: e73ea3d6c1c7a174d90610d74b85220d, type: 3}
      propertyPath: m_LocalRotation.w
      value: 1
      objectReference: {fileID: 0}
    - target: {fileID: 4731399302631000, guid: e73ea3d6c1c7a174d90610d74b85220d, type: 3}
      propertyPath: m_RootOrder
      value: 0
      objectReference: {fileID: 0}
    - target: {fileID: 4731399302631000, guid: e73ea3d6c1c7a174d90610d74b85220d, type: 3}
      propertyPath: m_LocalEulerAnglesHint.x
      value: 0
      objectReference: {fileID: 0}
    - target: {fileID: 4731399302631000, guid: e73ea3d6c1c7a174d90610d74b85220d, type: 3}
      propertyPath: m_LocalEulerAnglesHint.y
      value: 0
      objectReference: {fileID: 0}
    - target: {fileID: 4731399302631000, guid: e73ea3d6c1c7a174d90610d74b85220d, type: 3}
      propertyPath: m_LocalEulerAnglesHint.z
      value: 0
      objectReference: {fileID: 0}
    - target: {fileID: 4731399302631000, guid: e73ea3d6c1c7a174d90610d74b85220d, type: 3}
      propertyPath: m_LocalScale.x
      value: 1.3
      objectReference: {fileID: 0}
    - target: {fileID: 4731399302631000, guid: e73ea3d6c1c7a174d90610d74b85220d, type: 3}
      propertyPath: m_LocalScale.y
      value: 1
      objectReference: {fileID: 0}
    - target: {fileID: 4731399302631000, guid: e73ea3d6c1c7a174d90610d74b85220d, type: 3}
      propertyPath: m_LocalScale.z
      value: 1.2
      objectReference: {fileID: 0}
    m_RemovedComponents: []
  m_SourcePrefab: {fileID: 100100000, guid: e73ea3d6c1c7a174d90610d74b85220d, type: 3}
--- !u!1 &8345063641267571669 stripped
GameObject:
  m_CorrespondingSourceObject: {fileID: 1626472809896912, guid: e73ea3d6c1c7a174d90610d74b85220d,
    type: 3}
  m_PrefabInstance: {fileID: 8343578490667929605}
  m_PrefabAsset: {fileID: 0}
