%YAML 1.1
%TAG !u! tag:unity3d.com,2011:
--- !u!54 &6058746345168597691
Rigidbody:
  m_ObjectHideFlags: 0
  m_CorrespondingSourceObject: {fileID: 0}
  m_PrefabInstance: {fileID: 0}
  m_PrefabAsset: {fileID: 0}
  m_GameObject: {fileID: 2216060099258342175}
  serializedVersion: 2
  m_Mass: 1
  m_Drag: 0
  m_AngularDrag: 0.05
  m_UseGravity: 1
  m_IsKinematic: 0
  m_Interpolate: 0
  m_Constraints: 0
  m_CollisionDetection: 0
--- !u!114 &6011181859865602856
MonoBehaviour:
  m_ObjectHideFlags: 0
  m_CorrespondingSourceObject: {fileID: 0}
  m_PrefabInstance: {fileID: 0}
  m_PrefabAsset: {fileID: 0}
  m_GameObject: {fileID: 2216060099258342175}
  m_Enabled: 1
  m_EditorHideFlags: 0
  m_Script: {fileID: 11500000, guid: 02d61468f8b77ae4b92c344bc9a600fb, type: 3}
  m_Name: 
  m_EditorClassIdentifier: 
  m_allowOffhandGrab: 1
  m_snapPosition: 0
  m_snapOrientation: 0
  m_snapOffset: {fileID: 0}
  m_grabPoints: []
--- !u!114 &9116735145627152014
MonoBehaviour:
  m_ObjectHideFlags: 0
  m_CorrespondingSourceObject: {fileID: 0}
  m_PrefabInstance: {fileID: 0}
  m_PrefabAsset: {fileID: 0}
  m_GameObject: {fileID: 2216060099258342175}
  m_Enabled: 1
  m_EditorHideFlags: 0
  m_Script: {fileID: 11500000, guid: fe2788154aa35f54a9a4d3a923a48628, type: 3}
  m_Name: 
  m_EditorClassIdentifier: 
  table1: {fileID: 0}
  table2: {fileID: 0}
  bean: {fileID: 0}
  chair: {fileID: 0}
  fridge: {fileID: 0}
  bed1: {fileID: 0}
  bed2: {fileID: 0}
  poof: {fileID: 0}
  sofa: {fileID: 0}
--- !u!114 &-384672864008710521
MonoBehaviour:
  m_ObjectHideFlags: 0
  m_CorrespondingSourceObject: {fileID: 0}
  m_PrefabInstance: {fileID: 0}
  m_PrefabAsset: {fileID: 0}
  m_GameObject: {fileID: 2216060099258342175}
  m_Enabled: 1
  m_EditorHideFlags: 0
  m_Script: {fileID: 11500000, guid: 94aff18cc83219c4bbc4e61586c481ad, type: 3}
  m_Name: 
  m_EditorClassIdentifier: 
--- !u!1001 &2217297082609920669
PrefabInstance:
  m_ObjectHideFlags: 0
  serializedVersion: 2
  m_Modification:
    m_TransformParent: {fileID: 0}
    m_Modifications:
    - target: {fileID: 1245856788164994, guid: ab6797f9424804a479af1b2420f1e971, type: 3}
      propertyPath: m_Name
      value: RFAIPP_Console_3 Variant
      objectReference: {fileID: 0}
    - target: {fileID: 4763117585630828, guid: ab6797f9424804a479af1b2420f1e971, type: 3}
      propertyPath: m_LocalPosition.x
      value: -319.935
      objectReference: {fileID: 0}
    - target: {fileID: 4763117585630828, guid: ab6797f9424804a479af1b2420f1e971, type: 3}
      propertyPath: m_LocalPosition.y
      value: 76.46691
      objectReference: {fileID: 0}
    - target: {fileID: 4763117585630828, guid: ab6797f9424804a479af1b2420f1e971, type: 3}
      propertyPath: m_LocalPosition.z
      value: 74.136
      objectReference: {fileID: 0}
    - target: {fileID: 4763117585630828, guid: ab6797f9424804a479af1b2420f1e971, type: 3}
      propertyPath: m_LocalRotation.x
      value: 0
      objectReference: {fileID: 0}
    - target: {fileID: 4763117585630828, guid: ab6797f9424804a479af1b2420f1e971, type: 3}
      propertyPath: m_LocalRotation.y
      value: 0
      objectReference: {fileID: 0}
    - target: {fileID: 4763117585630828, guid: ab6797f9424804a479af1b2420f1e971, type: 3}
      propertyPath: m_LocalRotation.z
      value: 0
      objectReference: {fileID: 0}
    - target: {fileID: 4763117585630828, guid: ab6797f9424804a479af1b2420f1e971, type: 3}
      propertyPath: m_LocalRotation.w
      value: 1
      objectReference: {fileID: 0}
    - target: {fileID: 4763117585630828, guid: ab6797f9424804a479af1b2420f1e971, type: 3}
      propertyPath: m_RootOrder
      value: 0
      objectReference: {fileID: 0}
    - target: {fileID: 4763117585630828, guid: ab6797f9424804a479af1b2420f1e971, type: 3}
      propertyPath: m_LocalEulerAnglesHint.x
      value: 0
      objectReference: {fileID: 0}
    - target: {fileID: 4763117585630828, guid: ab6797f9424804a479af1b2420f1e971, type: 3}
      propertyPath: m_LocalEulerAnglesHint.y
      value: 0
      objectReference: {fileID: 0}
    - target: {fileID: 4763117585630828, guid: ab6797f9424804a479af1b2420f1e971, type: 3}
      propertyPath: m_LocalEulerAnglesHint.z
      value: 0
      objectReference: {fileID: 0}
    - target: {fileID: 64845746921768634, guid: ab6797f9424804a479af1b2420f1e971,
        type: 3}
      propertyPath: m_Convex
      value: 1
      objectReference: {fileID: 0}
    m_RemovedComponents: []
  m_SourcePrefab: {fileID: 100100000, guid: ab6797f9424804a479af1b2420f1e971, type: 3}
--- !u!1 &2216060099258342175 stripped
GameObject:
  m_CorrespondingSourceObject: {fileID: 1245856788164994, guid: ab6797f9424804a479af1b2420f1e971,
    type: 3}
  m_PrefabInstance: {fileID: 2217297082609920669}
  m_PrefabAsset: {fileID: 0}
