%YAML 1.1
%TAG !u! tag:unity3d.com,2011:
--- !u!54 &1783006915
Rigidbody:
  m_ObjectHideFlags: 0
  m_CorrespondingSourceObject: {fileID: 0}
  m_PrefabInstance: {fileID: 0}
  m_PrefabAsset: {fileID: 0}
  m_GameObject: {fileID: 1101697828160570321}
  serializedVersion: 2
  m_Mass: 1
  m_Drag: 0
  m_AngularDrag: 0.05
  m_UseGravity: 1
  m_IsKinematic: 0
  m_Interpolate: 0
  m_Constraints: 0
  m_CollisionDetection: 0
--- !u!114 &1783006914
MonoBehaviour:
  m_ObjectHideFlags: 0
  m_CorrespondingSourceObject: {fileID: 0}
  m_PrefabInstance: {fileID: 0}
  m_PrefabAsset: {fileID: 0}
  m_GameObject: {fileID: 1101697828160570321}
  m_Enabled: 1
  m_EditorHideFlags: 0
  m_Script: {fileID: 11500000, guid: 02d61468f8b77ae4b92c344bc9a600fb, type: 3}
  m_Name: 
  m_EditorClassIdentifier: 
  m_allowOffhandGrab: 1
  m_snapPosition: 0
  m_snapOrientation: 0
  m_snapOffset: {fileID: 0}
  m_grabPoints: []
--- !u!114 &7900541838961448887
MonoBehaviour:
  m_ObjectHideFlags: 0
  m_CorrespondingSourceObject: {fileID: 0}
  m_PrefabInstance: {fileID: 0}
  m_PrefabAsset: {fileID: 0}
  m_GameObject: {fileID: 1101697828160570321}
  m_Enabled: 1
  m_EditorHideFlags: 0
  m_Script: {fileID: 11500000, guid: ffc057a6c2acb25439291a61e5c0f33f, type: 3}
  m_Name: 
  m_EditorClassIdentifier: 
  table: {fileID: 0}
--- !u!114 &4087771759280661792
MonoBehaviour:
  m_ObjectHideFlags: 0
  m_CorrespondingSourceObject: {fileID: 0}
  m_PrefabInstance: {fileID: 0}
  m_PrefabAsset: {fileID: 0}
  m_GameObject: {fileID: 1101697828160570321}
  m_Enabled: 1
  m_EditorHideFlags: 0
  m_Script: {fileID: 11500000, guid: 94aff18cc83219c4bbc4e61586c481ad, type: 3}
  m_Name: 
  m_EditorClassIdentifier: 
--- !u!1001 &1102320586170569955
PrefabInstance:
  m_ObjectHideFlags: 0
  serializedVersion: 2
  m_Modification:
    m_TransformParent: {fileID: 0}
    m_Modifications:
    - target: {fileID: 1758041348806450, guid: 2e05038adc96e6549b82db939cde341d, type: 3}
      propertyPath: m_Name
      value: RFAIPP_Dining_Table_2 Variant
      objectReference: {fileID: 0}
    - target: {fileID: 4066513020378278, guid: 2e05038adc96e6549b82db939cde341d, type: 3}
      propertyPath: m_LocalPosition.x
      value: -327.52475
      objectReference: {fileID: 0}
    - target: {fileID: 4066513020378278, guid: 2e05038adc96e6549b82db939cde341d, type: 3}
      propertyPath: m_LocalPosition.y
      value: 76.46691
      objectReference: {fileID: 0}
    - target: {fileID: 4066513020378278, guid: 2e05038adc96e6549b82db939cde341d, type: 3}
      propertyPath: m_LocalPosition.z
      value: 84.53231
      objectReference: {fileID: 0}
    - target: {fileID: 4066513020378278, guid: 2e05038adc96e6549b82db939cde341d, type: 3}
      propertyPath: m_LocalRotation.x
      value: 0
      objectReference: {fileID: 0}
    - target: {fileID: 4066513020378278, guid: 2e05038adc96e6549b82db939cde341d, type: 3}
      propertyPath: m_LocalRotation.y
      value: 0
      objectReference: {fileID: 0}
    - target: {fileID: 4066513020378278, guid: 2e05038adc96e6549b82db939cde341d, type: 3}
      propertyPath: m_LocalRotation.z
      value: 0
      objectReference: {fileID: 0}
    - target: {fileID: 4066513020378278, guid: 2e05038adc96e6549b82db939cde341d, type: 3}
      propertyPath: m_LocalRotation.w
      value: 1
      objectReference: {fileID: 0}
    - target: {fileID: 4066513020378278, guid: 2e05038adc96e6549b82db939cde341d, type: 3}
      propertyPath: m_RootOrder
      value: 0
      objectReference: {fileID: 0}
    - target: {fileID: 4066513020378278, guid: 2e05038adc96e6549b82db939cde341d, type: 3}
      propertyPath: m_LocalEulerAnglesHint.x
      value: 0
      objectReference: {fileID: 0}
    - target: {fileID: 4066513020378278, guid: 2e05038adc96e6549b82db939cde341d, type: 3}
      propertyPath: m_LocalEulerAnglesHint.y
      value: 0
      objectReference: {fileID: 0}
    - target: {fileID: 4066513020378278, guid: 2e05038adc96e6549b82db939cde341d, type: 3}
      propertyPath: m_LocalEulerAnglesHint.z
      value: 0
      objectReference: {fileID: 0}
    - target: {fileID: 64524086828834686, guid: 2e05038adc96e6549b82db939cde341d,
        type: 3}
      propertyPath: m_Convex
      value: 1
      objectReference: {fileID: 0}
    m_RemovedComponents: []
  m_SourcePrefab: {fileID: 100100000, guid: 2e05038adc96e6549b82db939cde341d, type: 3}
--- !u!1 &1101697828160570321 stripped
GameObject:
  m_CorrespondingSourceObject: {fileID: 1758041348806450, guid: 2e05038adc96e6549b82db939cde341d,
    type: 3}
  m_PrefabInstance: {fileID: 1102320586170569955}
  m_PrefabAsset: {fileID: 0}
