%YAML 1.1
%TAG !u! tag:unity3d.com,2011:
--- !u!54 &4063392522276954507
Rigidbody:
  m_ObjectHideFlags: 0
  m_CorrespondingSourceObject: {fileID: 0}
  m_PrefabInstance: {fileID: 0}
  m_PrefabAsset: {fileID: 0}
  m_GameObject: {fileID: 3257379274897549248}
  serializedVersion: 2
  m_Mass: 1
  m_Drag: 0
  m_AngularDrag: 0.05
  m_UseGravity: 1
  m_IsKinematic: 1
  m_Interpolate: 0
  m_Constraints: 0
  m_CollisionDetection: 0
--- !u!64 &60214735790963690
MeshCollider:
  m_ObjectHideFlags: 0
  m_CorrespondingSourceObject: {fileID: 0}
  m_PrefabInstance: {fileID: 0}
  m_PrefabAsset: {fileID: 0}
  m_GameObject: {fileID: 3257379274897549248}
  m_Material: {fileID: 0}
  m_IsTrigger: 0
  m_Enabled: 1
  serializedVersion: 3
  m_Convex: 0
  m_CookingOptions: 14
  m_Mesh: {fileID: 0}
--- !u!114 &5644817303090206310
MonoBehaviour:
  m_ObjectHideFlags: 0
  m_CorrespondingSourceObject: {fileID: 0}
  m_PrefabInstance: {fileID: 0}
  m_PrefabAsset: {fileID: 0}
  m_GameObject: {fileID: 3257379274897549248}
  m_Enabled: 1
  m_EditorHideFlags: 0
  m_Script: {fileID: 11500000, guid: 02d61468f8b77ae4b92c344bc9a600fb, type: 3}
  m_Name: 
  m_EditorClassIdentifier: 
  m_allowOffhandGrab: 1
  m_snapPosition: 0
  m_snapOrientation: 0
  m_snapOffset: {fileID: 0}
  m_grabPoints: []
--- !u!114 &7266755749167055219
MonoBehaviour:
  m_ObjectHideFlags: 0
  m_CorrespondingSourceObject: {fileID: 0}
  m_PrefabInstance: {fileID: 0}
  m_PrefabAsset: {fileID: 0}
  m_GameObject: {fileID: 3257379274897549248}
  m_Enabled: 1
  m_EditorHideFlags: 0
  m_Script: {fileID: 11500000, guid: 8b02dedd769d6294e883572f96e33376, type: 3}
  m_Name: 
  m_EditorClassIdentifier: 
  sofa: {fileID: 0}
--- !u!114 &8860196413321064544
MonoBehaviour:
  m_ObjectHideFlags: 0
  m_CorrespondingSourceObject: {fileID: 0}
  m_PrefabInstance: {fileID: 0}
  m_PrefabAsset: {fileID: 0}
  m_GameObject: {fileID: 3257379274897549248}
  m_Enabled: 1
  m_EditorHideFlags: 0
  m_Script: {fileID: 11500000, guid: 8438d738114735543a16b9515c41fc08, type: 3}
  m_Name: 
  m_EditorClassIdentifier: 
--- !u!1001 &3257379274897580398
PrefabInstance:
  m_ObjectHideFlags: 0
  serializedVersion: 2
  m_Modification:
    m_TransformParent: {fileID: 0}
    m_Modifications:
    - target: {fileID: 100014, guid: 8cef4c90a64b6564ca61184c68b8d442, type: 3}
      propertyPath: m_Name
      value: sofa_4 Variant
      objectReference: {fileID: 0}
    - target: {fileID: 400014, guid: 8cef4c90a64b6564ca61184c68b8d442, type: 3}
      propertyPath: m_LocalPosition.x
      value: -331.82526
      objectReference: {fileID: 0}
    - target: {fileID: 400014, guid: 8cef4c90a64b6564ca61184c68b8d442, type: 3}
      propertyPath: m_LocalPosition.y
      value: 76.37
      objectReference: {fileID: 0}
    - target: {fileID: 400014, guid: 8cef4c90a64b6564ca61184c68b8d442, type: 3}
      propertyPath: m_LocalPosition.z
      value: -41.51206
      objectReference: {fileID: 0}
    - target: {fileID: 400014, guid: 8cef4c90a64b6564ca61184c68b8d442, type: 3}
      propertyPath: m_LocalRotation.x
      value: -0.7071068
      objectReference: {fileID: 0}
    - target: {fileID: 400014, guid: 8cef4c90a64b6564ca61184c68b8d442, type: 3}
      propertyPath: m_LocalRotation.y
      value: 0
      objectReference: {fileID: 0}
    - target: {fileID: 400014, guid: 8cef4c90a64b6564ca61184c68b8d442, type: 3}
      propertyPath: m_LocalRotation.z
      value: -0
      objectReference: {fileID: 0}
    - target: {fileID: 400014, guid: 8cef4c90a64b6564ca61184c68b8d442, type: 3}
      propertyPath: m_LocalRotation.w
      value: 0.7071068
      objectReference: {fileID: 0}
    - target: {fileID: 400014, guid: 8cef4c90a64b6564ca61184c68b8d442, type: 3}
      propertyPath: m_RootOrder
      value: 0
      objectReference: {fileID: 0}
    - target: {fileID: 400014, guid: 8cef4c90a64b6564ca61184c68b8d442, type: 3}
      propertyPath: m_LocalEulerAnglesHint.x
      value: 0
      objectReference: {fileID: 0}
    - target: {fileID: 400014, guid: 8cef4c90a64b6564ca61184c68b8d442, type: 3}
      propertyPath: m_LocalEulerAnglesHint.y
      value: 0
      objectReference: {fileID: 0}
    - target: {fileID: 400014, guid: 8cef4c90a64b6564ca61184c68b8d442, type: 3}
      propertyPath: m_LocalEulerAnglesHint.z
      value: 0
      objectReference: {fileID: 0}
    - target: {fileID: 2300014, guid: 8cef4c90a64b6564ca61184c68b8d442, type: 3}
      propertyPath: m_Materials.Array.data[0]
      value: 
      objectReference: {fileID: 2100000, guid: fd7ffc079fdcc7e468d0789a6302fe0a, type: 2}
    - target: {fileID: 2300012, guid: 8cef4c90a64b6564ca61184c68b8d442, type: 3}
      propertyPath: m_Materials.Array.data[0]
      value: 
      objectReference: {fileID: 2100000, guid: fd7ffc079fdcc7e468d0789a6302fe0a, type: 2}
    - target: {fileID: 2300010, guid: 8cef4c90a64b6564ca61184c68b8d442, type: 3}
      propertyPath: m_Materials.Array.data[0]
      value: 
      objectReference: {fileID: 2100000, guid: fd7ffc079fdcc7e468d0789a6302fe0a, type: 2}
    - target: {fileID: 2300008, guid: 8cef4c90a64b6564ca61184c68b8d442, type: 3}
      propertyPath: m_Materials.Array.data[0]
      value: 
      objectReference: {fileID: 2100000, guid: fd7ffc079fdcc7e468d0789a6302fe0a, type: 2}
    - target: {fileID: 2300006, guid: 8cef4c90a64b6564ca61184c68b8d442, type: 3}
      propertyPath: m_Materials.Array.data[0]
      value: 
      objectReference: {fileID: 2100000, guid: fd7ffc079fdcc7e468d0789a6302fe0a, type: 2}
    - target: {fileID: 2300004, guid: 8cef4c90a64b6564ca61184c68b8d442, type: 3}
      propertyPath: m_Materials.Array.data[0]
      value: 
      objectReference: {fileID: 2100000, guid: fd7ffc079fdcc7e468d0789a6302fe0a, type: 2}
    - target: {fileID: 2300002, guid: 8cef4c90a64b6564ca61184c68b8d442, type: 3}
      propertyPath: m_Materials.Array.data[0]
      value: 
      objectReference: {fileID: 2100000, guid: fd7ffc079fdcc7e468d0789a6302fe0a, type: 2}
    - target: {fileID: 2300018, guid: 8cef4c90a64b6564ca61184c68b8d442, type: 3}
      propertyPath: m_Materials.Array.data[0]
      value: 
      objectReference: {fileID: 2100000, guid: fd7ffc079fdcc7e468d0789a6302fe0a, type: 2}
    - target: {fileID: 2300016, guid: 8cef4c90a64b6564ca61184c68b8d442, type: 3}
      propertyPath: m_Materials.Array.data[0]
      value: 
      objectReference: {fileID: 2100000, guid: fd7ffc079fdcc7e468d0789a6302fe0a, type: 2}
    m_RemovedComponents: []
  m_SourcePrefab: {fileID: 100100000, guid: 8cef4c90a64b6564ca61184c68b8d442, type: 3}
--- !u!1 &3257379274897549248 stripped
GameObject:
  m_CorrespondingSourceObject: {fileID: 100014, guid: 8cef4c90a64b6564ca61184c68b8d442,
    type: 3}
  m_PrefabInstance: {fileID: 3257379274897580398}
  m_PrefabAsset: {fileID: 0}
